{
  "/academicYears":
  {
    "academicyearRandomId1":
    {
      "name": "2016",
      "startDate": "2016-05-01T00:00:02.014Z",
      "endDate": "2017-04-30T00:00:01.974Z"
    }
  },

  "/classes":
  {
    "classRandomId1":
    {
      "name": "Class5A",
      "grade": "5",
      "section": "A",
      "code": "codeForClass5A",
      "teachingMedium": "English",
      "school": "schoolRandomId1",
      "academicYear": "academicyearRandomId1",
      "subjects": ["subjectRandomId1", "subjectRandomId2", "subjectRandomId3"],
      "adminTeacher": "teacherRandomId1",
      "teachers": ["teacherRandomId1", "teacherRandomId2"],
      "students": ["studentRandomId1", "studentRandomId2", "studentRandomId3"],
      "studentsByOptionalSubject": null
    },
    "classRandomId2":
    {
      "name": "Class6B",
      "grade": "6",
      "section": "B",
      "code": "codeForClass6B",
      "teachingMedium": "English",
      "school": "schoolRandomId1",
      "academicYear": "academicyearRandomId1",
      "subjects": ["subjectRandomId1", "subjectRandomId2", "subjectRandomId3"],
      "adminTeacher": "teacherRandomId1",
      "teachers": ["teacherRandomId1", "teacherRandomId2"],
      "students": ["studentRandomId1", "studentRandomId2", "studentRandomId4"],
      "studentsByOptionalSubject": null
    }
  },

  "contacts":
  {
    "contactRandomId1":
    {
      "name": null,
      "firstName": "firstName1",
      "lastName": "lastName1",
      "relationship": "relationship1",
      "phone": "phone1",
      "mobile": "mobile1",
      "fax": "fax1",
      "email": "email1"
    }
  },

  "exams":
  {
    "examRandomId1":
    {
      "name": "Exam1",
      "date": "2016-09-01T14:00:00.010Z",
      "passMarks": "passMarks1",
      "cls": "cls1",
      "subject": "subject1",
      "questions": null
    }

  },

  "examResults":
  {
    "examResultRandomId1":
    {
      "name": null,
      "exam": "examRandomId1",
      "student": "studentRandomId1",
      "answers": null
    }

  },

  "images":
  {
    "imageRandomId1":
    {
      "name": "name1",
      "contents": "contents1"
    }
  },

  "masteries":
  {
    "masteryRandomId1":
    {
      "name": null,
      "question": "questionRandomId1",
      "mastery": "mastery1",
      "mark": "mark1"
    }
  },

  "questions":
  {
    "questionRandomId1":
    {
      "name": null,
      "description": "description1",
      "concept": "concept1",
      "type": "type1",
      "difficultyLevel": "difficultyLevel1",
      "options": "options1",
      "answer": "answer1",
      "subject": "subject1",
      "masteries": null
    },
    "questionRandomId2":
    {
      "name": null,
      "description": "description1",
      "concept": "concept1",
      "type": "type1",
      "difficultyLevel": "difficultyLevel1",
      "options": "options1",
      "answer": "answer1",
      "subject": "subject1",
      "masteries": null
    },
    "questionRandomId3":
    {
      "name": null,
      "description": "description1",
      "concept": "concept1",
      "type": "type1",
      "difficultyLevel": "difficultyLevel1",
      "options": "options1",
      "answer": "answer1",
      "subject": "subject1",
      "masteries": null
    },
    "questionRandomId4":
    {
      "name": null,
      "description": "description1",
      "concept": "concept1",
      "type": "type1",
      "difficultyLevel": "difficultyLevel1",
      "options": "options1",
      "answer": "answer1",
      "subject": "subject1",
      "masteries": null
    },
    "questionRandomId5":
    {
      "name": null,
      "description": "description1",
      "concept": "concept1",
      "type": "type1",
      "difficultyLevel": "difficultyLevel1",
      "options": "options1",
      "answer": "answer1",
      "subject": "subject1",
      "masteries": null
    }
  },

  "/schools":
  {
    "schoolRandomId1":
    {
      "name": "School1",
      "address":
      {
        "building": "building1",
        "street": "street1",
        "city": "city1",
        "district": "district1",
        "state": "state1",
        "country": "country1",
        "postal": "postal1"
      },
      "image": "imageRandomId1",
      "contacts": null,
      "academicYear": "academicyearRandomId1",
      "classes": ["classRandomId1", "classRandomId2"],
      "teachers": ["teacherRandomId1", "teacherRandomId2", "teacherRandomId3"]
    }
  },

  "students":
  {
    "studentRandomId1":
    {
      "name": null,
      "firstName": "firstName1",
      "lastName": "lastName1",
      "rollNo": "rollNo1",
      "gender": "gender1",
      "dob": "dob1",
      "image": "imageRandomId1",
      "address":
      {
        "building": "building1",
        "street": "street1",
        "city": "city1",
        "district": "district1",
        "state": "state1",
        "country": "country1",
        "postal": "postal1"
      },
      "phone1": "phone11",
      "phone2": "phone21",
      "email": "email1",
      "contacts": null,
      "school": null,
      "cls": null,
      "subjects": null,
      "exams":
      {}
    },
    "studentRandomId2":
    {
      "name": null,
      "firstName": "firstName1",
      "lastName": "lastName1",
      "rollNo": "rollNo1",
      "gender": "gender1",
      "dob": "dob1",
      "image": "imageRandomId1",
      "address":
      {
        "building": "building1",
        "street": "street1",
        "city": "city1",
        "district": "district1",
        "state": "state1",
        "country": "country1",
        "postal": "postal1"
      },
      "phone1": "phone11",
      "phone2": "phone21",
      "email": "email1",
      "contacts": null,
      "school": null,
      "cls": null,
      "subjects": null,
      "exams":
      {}
    },
    "studentRandomId3":
    {
      "name": null,
      "firstName": "firstName1",
      "lastName": "lastName1",
      "rollNo": "rollNo1",
      "gender": "gender1",
      "dob": "dob1",
      "image": "imageRandomId1",
      "address":
      {
        "building": "building1",
        "street": "street1",
        "city": "city1",
        "district": "district1",
        "state": "state1",
        "country": "country1",
        "postal": "postal1"
      },
      "phone1": "phone11",
      "phone2": "phone21",
      "email": "email1",
      "contacts": null,
      "school": null,
      "cls": null,
      "subjects": null,
      "exams":
      {}
    },
    "studentRandomId4":
    {
      "name": null,
      "firstName": "firstName1",
      "lastName": "lastName1",
      "rollNo": "rollNo1",
      "gender": "gender1",
      "dob": "dob1",
      "image": "imageRandomId1",
      "address":
      {
        "building": "building1",
        "street": "street1",
        "city": "city1",
        "district": "district1",
        "state": "state1",
        "country": "country1",
        "postal": "postal1"
      },
      "phone1": "phone11",
      "phone2": "phone21",
      "email": "email1",
      "contacts": null,
      "school": null,
      "cls": null,
      "subjects": null,
      "exams":
      {}
    },
    "studentRandomId5":
    {
      "name": null,
      "firstName": "firstName1",
      "lastName": "lastName1",
      "rollNo": "rollNo1",
      "gender": "gender1",
      "dob": "dob1",
      "image": "imageRandomId1",
      "address":
      {
        "building": "building1",
        "street": "street1",
        "city": "city1",
        "district": "district1",
        "state": "state1",
        "country": "country1",
        "postal": "postal1"
      },
      "phone1": "phone11",
      "phone2": "phone21",
      "email": "email1",
      "contacts": null,
      "school": null,
      "cls": null,
      "subjects": null,
      "exams":
      {}
    }
  },

  "subjects":
  {
    "subjectRandomId1":
    {
      "name": "Maths",
      "category": "category1",
      "isMandatory": true,
      "questions": null
    },
    "subjectRandomId2":
    {
      "name": "French",
      "category": "category1",
      "isMandatory": false,
      "questions": null
    },
    "subjectRandomId3":
    {
      "name": "English",
      "category": "category1",
      "isMandatory": true,
      "questions": null
    },
    "subjectRandomId4":
    {
      "name": "English",
      "category": "category1",
      "isMandatory": true,
      "questions": null
    }
  },

  "/teachers":
  {
    "teacherRandomId1":
    {
      "name": null,
      "firstName": "firstName1",
      "lastName": "lastName1",
      "empId": "empId1",
      "gender": "gender1",
      "dob": "dob1",
      "image": "imageRandomId1",
      "address":
      {
        "building": "building1",
        "street": "street1",
        "city": "city1",
        "district": "district1",
        "state": "state1",
        "country": "country1",
        "postal": "postal1"
      },
      "contacts": null,
      "acadYear": null,
      "classes": null,
      "subjects": null
    },
    "teacherRandomId2":
    {
      "name": null,
      "firstName": "firstName1",
      "lastName": "lastName1",
      "empId": "empId1",
      "gender": "gender1",
      "dob": "dob1",
      "image": "imageRandomId1",
      "address":
      {
        "building": "building1",
        "street": "street1",
        "city": "city1",
        "district": "district1",
        "state": "state1",
        "country": "country1",
        "postal": "postal1"
      },
      "contacts": null,
      "acadYear": null,
      "classes": null,
      "subjects": null
    },
    "teacherRandomId3":
    {
      "name": null,
      "firstName": "firstName1",
      "lastName": "lastName1",
      "empId": "empId1",
      "gender": "gender1",
      "dob": "dob1",
      "image": "imageRandomId1",
      "address":
      {
        "building": "building1",
        "street": "street1",
        "city": "city1",
        "district": "district1",
        "state": "state1",
        "country": "country1",
        "postal": "postal1"
      },
      "contacts": null,
      "acadYear": null,
      "classes": null,
      "subjects": null
    }
  }
}